1 0.191414 0.5 0.0211119 1 
1 0.0876144 0.5 0.0190007 1 
1 0.228712 0.5 0.0168895 1 
1 0.378958 0.5 0.0204082 1 
1 0.265306 0.5 0.0168895 1 
1 0.129838 0.5 0.0175932 1 
1 0.432794 0.5 0.0154821 1 
1 0.292752 0.5 0.0154821 1 
0 0.0657987 0.5 0.0133709 1 
1 0.153413 0.5 0.0154821 1 
0 0.311049 0.5 0.0140746 1 
0 0.0235749 0.496914 0.0133709 0.993827 
0 0.430683 0.496914 0.0140746 0.993827 
