1 0.121042 0.5 0.0140746 1 
0 0.236805 0.5 0.0133709 1 
1 0.351865 0.5 0.0126671 1 
0 0.371217 0.5 0.0133709 1 
0 0.057354 0.5 0.0133709 1 
0 0.306122 0.5 0.0126671 1 
0 0.613652 0.5 0.0154821 1 
0 0.79627 0.5 0.0133709 1 
0 0.13582 0.5 0.0126671 1 
