0 0.93214 0.5 0.00821 1
0 0.87329 0.5 0.01643 1
1 0.8596 0.5 0.01278 1
0 0.7834 0.5 0.01186 1
0 0.68804 0.5 0.00913 1
0 0.59085 0.5 0.00821 1
0 0.57717 0.5 0.01186 1
0 0.39694 0.5 0.01643 1
0 0.36135 0.5 0.0146 1
0 0.32394 0.5 0.0073 1
0 0.03375 0.5 0.01095 1
0 0.4234 0.5 0.01825 1
