0 0.17215 0.5 0.01061 1
0 0.41621 0.5 0.01061 1
0 0.58639 0.5 0.00653 1
0 0.88432 0.5 0.00653 1
0 0.87412 0.5 0.00898 1
0 0.86596 0.5 0.00408 1
0 0.85739 0.5 0.00816 1
1 0.85045 0.5 0.01061 1
0 0.84188 0.5 0.00653 1
