1 0.11711 0.5 0.01895 1
0 0.19318 0.5 0.01474 1
0 0.21318 0.5 0.01706 1
0 0.25464 0.5 0.01229 1
0 0.30017 0.5 0.01237 1
0 0.32052 0.5 0.0142 1
0 0.36446 0.5 0.01481 1
0 0.55088 0.5 0.01082 1
1 0.58628 0.5 0.01691 1
1 0.60938 0.5 0.01018 1
0 0.92249 0.5 0.01045 1
0 0.93689 0.5 0.00635 1
0 0.94785 0.5 0.00639 1
0 0.66285 0.5 0.00686 1
0 0.49734 0.5 0.00966 1
