0 0.05257 0.5 0.00816 1
0 0.07951 0.5 0.00816 1
0 0.9031 0.5 0.00816 1
0 0.93044 0.5 0.00898 1
1 0.87086 0.5 0.02041 1
1 0.75168 0.5 0.01551 1
0 0.62557 0.5 0.00816 1
0 0.3003 0.5 0.00735 1
0 0.57538 0.5 0.00898 1
0 0.39866 0.5 0.00653 1
0 0.54395 0.5 0.01469 1
