0 0.01951 0.5 0.01224 1
0 0.10767 0.5 0.00898 1
0 0.13215 0.5 0.01224 1
0 0.32887 0.5 0.01551 1
0 0.35295 0.5 0.00979 1
0 0.39784 0.5 0.00979 1
0 0.54762 0.5 0.01224 1
0 0.5819 0.5 0.01061 1
0 0.62027 0.5 0.00735 1
0 0.68026 0.5 0.00816 1
0 0.68965 0.5 0.00898 1
0 0.71373 0.5 0.00979 1
0 0.78025 0.5 0.01388 1
0 0.80964 0.5 0.00898 1
0 0.85371 0.5 0.01224 1
0 0.94187 0.5 0.00898 1
0 0.22806 0.5 0.00816 1
1 0.20562 0.5 0.01551 1
