1 0.03724 0.5 0.01917 1
0 0.2336 0.5 0.00688 1
0 0.1802 0.5 0.0081 1
0 0.79771 0.5 0.00575 1
0 0.27835 0.5 0.00796 1
0 0.30401 0.5 0.00623 1
0 0.74571 0.5 0.00489 1
1 0.10306 0.5 0.01591 1
1 0.07035 0.5 0.01457 1
