0 0.02206 0.5 0.00665 1
0 0.10887 0.5 0.00591 1
0 0.15579 0.5 0.00961 1
0 0.20788 0.5 0.00739 1
1 0.79859 0.5 0.00813 1
0 0.81336 0.5 0.00369 1
0 0.83184 0.5 0.00813 1
0 0.87543 0.5 0.00813 1
0 0.90683 0.5 0.00591 1
0 0.94894 0.5 0.00739 1
0 0.98478 0.5 0.00813 1
