1 0.79896 0.5 0.02364 1
1 0.06787 0.5 0.01552 1
1 0.84329 0.5 0.01773 1
0 0.15505 0.5 0.01404 1
0 0.22857 0.5 0.01478 1
0 0.31058 0.5 0.01478 1
0 0.37079 0.5 0.01256 1
0 0.72027 0.5 0.01699 1
0 0.88429 0.5 0.01552 1
0 0.33459 0.5 0.01699 1
0 0.24334 0.5 0.01625 1
1 0.86878 0.5 0.01699 1
0 0.67963 0.5 0.01404 1
0 0.6981 0.5 0.01699 1
0 0.40552 0.5 0.01108 1
0 0.3937 0.5 0.01404 1
0 0.78012 0.5 0.01256 1
0 0.97148 0.5 0.01552 1
