0 0.65648 0.5 0.00884 1
0 0.53165 0.5 0.00663 1
0 0.57031 0.5 0.00884 1
0 0.42044 0.5 0.00957 1
0 0.31328 0.5 0.00884 1
1 0.96359 0.5 0.01326 1
0 0.4418 0.5 0.00663 1
1 0.5913 0.5 0.01399 1
0 0.48414 0.5 0.00736 1
