1 0.47947 0.5 0.02449 1
1 0.8631 0.5 0.01469 1
0 0.96309 0.5 0.01061 1
0 0.92228 0.5 0.00898 1
0 0.43131 0.5 0.00816 1
0 0.41866 0.5 0.01061 1
0 0.64639 0.5 0.01061 1
0 0.73862 0.5 0.00571 1
0 0.78678 0.5 0.00571 1
