1 0.65038 0.5 0.01831 1
0 0.69698 0.5 0.00738 1
0 0.72372 0.5 0.00606 1
1 0.73314 0.5 0.01184 1
0 0.74102 0.5 0.00562 1
0 0.75968 0.5 0.00764 1
0 0.86989 0.5 0.00938 1
1 0.7951 0.5 0.01158 1
1 0.7796 0.5 0.01309 1
0 0.81433 0.5 0.01003 1
0 0.97017 0.5 0.00851 1
1 0.92995 0.5 0.01665 1
1 0.95337 0.5 0.01424 1
0 0.89526 0.5 0.00738 1
0 0.99521 0.5 0.00489 1
0 0.05453 0.5 0.00775 1
