0 0.47334 0.5 0.00898 1
0 0.54395 0.5 0.00816 1
0 0.67006 0.5 0.00735 1
0 0.7276 0.5 0.00816 1
0 0.69659 0.5 0.0049 1
0 0.88963 0.5 0.00735 1
0 0.31418 0.5 0.00571 1
0 0.23092 0.5 0.00735 1
1 0.94758 0.5 0.01551 1
1 0.13624 0.5 0.02857 1
0 0.81004 0.5 0.00816 1
0 0.87494 0.5 0.00571 1
