0 0.55987 0.5 0.00408 1
0 0.07951 0.5 0.00653 1
0 0.38805 0.5 0.0049 1
1 0.41781 0.5 0.0072 1
0 0.18898 0.5 0.00576 1
1 0.15246 0.5 0.00571 1
0 0.27074 0.5 0.00648 1
1 0.27794 0.5 0.00792 1
0 0.03687 0.5 0.00432 1
1 0.01131 0.5 0.00648 1
