1 0.26153 0.5 0.01281 1
0 0.39583 0.5 0.01221 1
0 0.42448 0.5 0.01127 1
0 0.16008 0.5 0.01033 1
0 0.14082 0.5 0.00939 1
0 0.11781 0.5 0.01409 1
0 0.01496 0.5 0.01127 1
0 0.93327 0.5 0.01002 1
