0 0.53785 0.5 0.00682 1
0 0.81431 0.5 0.00682 1
1 0.39469 0.5 0.02045 1
1 0.1118 0.5 0.01969 1
1 0.03189 0.5 0.01288 1
1 0.06597 0.5 0.01136 1
0 0.15762 0.5 0.00833 1
0 0.3625 0.5 0.00757 1
0 0.6988 0.5 0.00757 1
0 0.48293 0.5 0.00606 1
0 0.86051 0.5 0.00682 1
