1 0.05402 0.5 0.04007 1
1 0.1025 0.5 0.01683 1
0 0.21269 0.5 0.00962 1
0 0.40342 0.5 0.00801 1
0 0.4487 0.5 0.00882 1
0 0.49398 0.5 0.00641 1
0 0.52042 0.5 0.00641 1
0 0.53004 0.5 0.00801 1
0 0.59175 0.5 0.01122 1
0 0.80371 0.5 0.01202 1
