1 0.45835 0.5 0.01625 1
1 0.42916 0.5 0.01256 1
1 0.39998 0.5 0.0133 1
1 0.41549 0.5 0.0133 1
0 0.91126 0.5 0.00887 1
0 0.38262 0.5 0.01108 1
0 0.59614 0.5 0.01847 1
0 0.22118 0.5 0.00739 1
0 0.24334 0.5 0.00739 1
0 0.23558 0.5 0.00961 1
0 0.99438 0.5 0.0096 1
0 0.63641 0.5 0.00887 1
