0 0.81943 0.5 0.01551 1
0 0.94187 0.5 0.01551 1
1 0.62639 0.5 0.02612 1
1 0.57415 0.5 0.02285 1
1 0.54844 0.5 0.01877 1
1 0.53171 0.5 0.01632 1
0 0.42519 0.5 0.01714 1
1 0.32805 0.5 0.0253 1
0 0.21541 0.5 0.01551 1
1 0.25255 0.5 0.02285 1
1 0.18399 0.5 0.01796 1
0 0.72924 0.5 0.01306 1
0 0.9684 0.5 0.01632 1
0 0.48069 0.5 0.01551 1
0 0.02278 0.5 0.01224 1
