1 0.86088 0.5 0.01707 1
0 0.97245 0.5 0.01097 1
0 0.8999 0.5 0.01219 1
0 0.83832 0.5 0.01097 1
0 0.54813 0.5 0.0061 1
0 0.43961 0.5 0.00854 1
0 0.36523 0.5 0.00854 1
0 0.58897 0.5 0.00732 1
0 0.6414 0.5 0.00732 1
0 0.65543 0.5 0.00854 1
0 0.92856 0.5 0.01341 1
0 0.20306 0.5 0.01341 1
1 0.03845 0.5 0.01341 1
