1 0.52436 0.5 0.02775 1
0 0.94268 0.5 0.01061 1
0 0.48273 0.5 0.01469 1
0 0.43784 0.5 0.01143 1
0 0.42682 0.5 0.01061 1
0 0.37784 0.5 0.00898 1
0 0.56517 0.5 0.01143 1
0 0.61823 0.5 0.00979 1
0 0.60435 0.5 0.00979 1
0 0.58884 0.5 0.01796 1
