1 0.00339 0.5 0.01078 1
1 0.09816 0.5 0.01326 1
1 0.0279 0.5 0.01255 1
1 0.19882 0.5 0.01274 1
0 0.24146 0.5 0.00968 1
0 0.14827 0.5 0.00874 1
0 0.27966 0.5 0.01025 1
1 0.30962 0.5 0.01013 1
1 0.50487 0.5 0.0121 1
0 0.51759 0.5 0.0052 1
0 0.64642 0.5 0.00895 1
0 0.75316 0.5 0.00763 1
0 0.97823 0.5 0.00797 1
