0 0.80719 0.5 0.00571 1
0 0.74883 0.5 0.00816 1
1 0.94146 0.5 0.01632 1
1 0.36601 0.5 0.01143 1
1 0.33213 0.5 0.00898 1
1 0.34397 0.5 0.01143 1
1 0.96431 0.5 0.00653 1
1 0.9786 0.5 0.00898 1
0 0.92595 0.5 0.0049 1
0 0.90636 0.5 0.00653 1
0 0.6823 0.5 0.00571 1
1 0.69822 0.5 0.00979 1
0 0.44927 0.5 0.00979 1
0 0.40437 0.5 0.00653 1
0 0.46314 0.5 0.00653 1
0 0.51824 0.5 0.00898 1
0 0.48355 0.5 0.00653 1
1 0.50191 0.5 0.01551 1
0 0.21582 0.5 0.01143 1
0 0.20235 0.5 0.00571 1
0 0.01258 0.5 0.00653 1
