0 0.76201 0.5 0.00743 1
0 0.65701 0.5 0.00743 1
0 0.63378 0.5 0.00558 1
0 0.43446 0.5 0.0065 1
0 0.3698 0.5 0.0046 1
0 0.3652 0.5 0.0046 1
0 0.138 0.5 0.00607 1
0 0.17528 0.5 0.01104 1
1 0.20217 0.5 0.01022 1
1 0.39552 0.5 0.01766 1
1 0.46382 0.5 0.01487 1
