0 0.04359 0.5 0.00979 1
0 0.12889 0.5 0.01061 1
0 0.215 0.5 0.01469 1
0 0.32928 0.5 0.01306 1
0 0.34071 0.5 0.00653 1
0 0.36927 0.5 0.00979 1
0 0.57742 0.5 0.00653 1
0 0.64231 0.5 0.00735 1
0 0.93534 0.5 0.01061 1
0 0.96268 0.5 0.01143 1
1 0.14317 0.5 0.01306 1
1 0.19827 0.5 0.01714 1
0 0.31173 0.5 0.01551 1
1 0.46722 0.5 0.01959 1
