1 0.6922 0.5 0.01547 1
0 0.75885 0.5 0.01178 1
0 0.78683 0.5 0.00884 1
1 0.83102 0.5 0.01473 1
1 0.85459 0.5 0.01326 1
1 0.61487 0.5 0.01547 1
1 0.5449 0.5 0.01399 1
1 0.48193 0.5 0.01473 1
1 0.17519 0.5 0.01547 1
1 0.14094 0.5 0.01178 1
