0 0.23157 0.5 0.00811 1
0 0.08194 0.5 0.00811 1
0 0.30369 0.5 0.00992 1
0 0.54165 0.5 0.00992 1
0 0.3749 0.5 0.00992 1
1 0.75033 0.5 0.00901 1
0 0.26808 0.5 0.00901 1
0 0.25862 0.5 0.00992 1
0 0.09591 0.5 0.00901 1
