1 0.9384 0.5 0.01102 1
1 0.51518 0.5 0.0102 1
1 0.34336 0.5 0.01592 1
0 0.01278 0.5 0.00531 1
0 0.23867 0.5 0.0049 1
0 0.3754 0.5 0.0049 1
0 0.95391 0.5 0.00449 1
0 0.90595 0.5 0.0049 1
0 0.9786 0.5 0.00408 1
0 0.99125 0.5 0.00408 1
0 0.38641 0.5 0.00571 1
