0 0.24223 0.5 0.01108 1
0 0.3357 0.5 0.00739 1
0 0.35565 0.5 0.01182 1
0 0.34456 0.5 0.0133 1
0 0.63382 0.5 0.00961 1
1 0.69072 0.5 0.01256 1
1 0.70401 0.5 0.01404 1
0 0.71584 0.5 0.01256 1
0 0.73209 0.5 0.01108 1
1 0.94192 0.5 0.01552 1
0 0.9918 0.5 0.01034 1
