0 0.19337 0.5 0.01551 1
1 0.30969 0.5 0.03102 1
0 0.25622 0.5 0.01061 1
0 0.13175 0.5 0.00816 1
0 0.15419 0.5 0.01224 1
0 0.03461 0.5 0.01143 1
0 0.89249 0.5 0.01143 1
0 0.87004 0.5 0.01224 1
0 0.71944 0.5 0.00979 1
