0 0.25582 0.5 0.00979 1
1 0.73617 0.5 0.01224 1
0 0.44518 0.5 0.01143 1
0 0.35989 0.5 0.01061 1
0 0.34764 0.5 0.01388 1
1 0.04074 0.5 0.01877 1
1 0.01258 0.5 0.01306 1
0 0.31581 0.5 0.01224 1
1 0.75209 0.5 0.01306 1
1 0.46763 0.5 0.01877 1
1 0.49579 0.5 0.01306 1
0 0.22806 0.5 0.00979 1
0 0.23582 0.5 0.00898 1
1 0.05584 0.5 0.01306 1
1 0.08032 0.5 0.01632 1
0 0.06441 0.5 0.00735 1
