0 0.05184 0.5 0.00836 1
0 0.18323 0.5 0.00527 1
0 0.21167 0.5 0.00527 1
0 0.41752 0.5 0.00452 1
1 0.24269 0.5 0.01957 1
0 0.57165 0.5 0.00677 1
0 0.70186 0.5 0.00677 1
0 0.88119 0.5 0.00677 1
0 0.89881 0.5 0.00438 1
0 0.71628 0.5 0.00924 1
0 0.76358 0.5 0.00527 1
0 0.95566 0.5 0.00669 1
0 0.41025 0.5 0.0046 1
0 0.50883 0.5 0.00672 1
