0 0.03298 0.5 0.00762 1
0 0.20777 0.5 0.00838 1
1 0.4313 0.5 0.01066 1
0 0.45681 0.5 0.00838 1
0 0.48956 0.5 0.00838 1
0 0.49985 0.5 0.00914 1
0 0.62094 0.5 0.01066 1
0 0.59048 0.5 0.00609 1
0 0.56306 0.5 0.01066 1
1 0.53793 0.5 0.01371 1
0 0.707 0.5 0.00914 1
0 0.95186 0.5 0.00838 1
0 0.77631 0.5 0.00609 1
0 0.94006 0.5 0.00762 1
0 0.09543 0.5 0.00762 1
0 0.68301 0.5 0.00685 1
