0 0.65292 0.5 0.00735 1
0 0.95574 0.5 0.01877 1
0 0.98268 0.5 0.00898 1
0 0.9937 0.5 0.01306 1
0 0.45539 0.5 0.01061 1
0 0.46396 0.5 0.00816 1
0 0.20398 0.5 0.01877 1
0 0.10073 0.5 0.01959 1
0 0.15297 0.5 0.01143 1
0 0.16807 0.5 0.00571 1
1 0.26928 0.5 0.01224 1
1 0.42315 0.5 0.01796 1
0 0.59292 0.5 0.01796 1
