0 0.04767 0.5 0.01469 1
0 0.00033 0.5 0.01796 1
0 0.28969 0.5 0.00735 1
0 0.65822 0.5 0.01959 1
0 0.71414 0.5 0.01714 1
0 0.75944 0.5 0.01306 1
0 0.63496 0.5 0.01877 1
1 0.57701 0.5 0.02204 1
1 0.92309 0.5 0.02857 1
