1 0.93008 0.5 0.02283 1
1 0.18219 0.5 0.01915 1
0 0.28382 0.5 0.00736 1
0 0.26099 0.5 0.00736 1
0 0.31181 0.5 0.00736 1
1 0.24295 0.5 0.01841 1
1 0.36704 0.5 0.01915 1
0 0.98495 0.5 0.01178 1
