0 0.00654 0.5 0.0081 1
0 0.01906 0.5 0.00957 1
0 0.38398 0.5 0.00736 1
0 0.51765 0.5 0.0081 1
0 0.5044 0.5 0.0081 1
0 0.49188 0.5 0.01105 1
0 0.67194 0.5 0.01178 1
0 0.7003 0.5 0.01105 1
0 0.68778 0.5 0.00957 1
0 0.96617 0.5 0.01252 1
0 0.8568 0.5 0.00884 1
0 0.83286 0.5 0.0081 1
