1 0.425053 0.5 0.0197044 1 
1 0.204434 0.5 0.0190007 1 
1 0.488388 0.5 0.0154821 1 
1 0.386699 0.5 0.0147783 1 
0 0.46235 0.5 0.0140746 1 
0 0.524982 0.5 0.0140746 1 
0 0.758621 0.5 0.0140746 1 
0 0.714989 0.5 0.0126671 1 
0 0.870162 0.5 0.0133709 0.987654 
0 0.263899 0.5 0.0112597 1 
0 0.690359 0.5 0.0126671 1 
0 0.993666 0.5 0.0126671 1 
