1 0.33732 0.5 0.01914 1
1 0.38573 0.5 0.01509 1
1 0.30002 0.5 0.01425 1
1 0.4113 0.5 0.01383 1
1 0.90375 0.5 0.01611 1
0 0.68636 0.5 0.01152 1
0 0.033 0.5 0.00645 1
0 0.05127 0.5 0.00788 1
0 0.10807 0.5 0.01039 1
0 0.15734 0.5 0.00717 1
0 0.14605 0.5 0.00753 1
0 0.42824 0.5 0.01218 1
0 0.88153 0.5 0.01227 1
