0 0.91942 0.5 0.01306 1
1 0.94758 0.5 0.03673 1
1 0.41458 0.5 0.0351 1
1 0.36315 0.5 0.04 1
1 0.3252 0.5 0.02612 1
1 0.29704 0.5 0.02041 1
1 0.27785 0.5 0.03428 1
1 0.21092 0.5 0.04408 1
0 0.2399 0.5 0.00898 1
