0 0.08329 0.5 0.00691 1
0 0.28164 0.5 0.01469 1
0 0.14163 0.5 0.00951 1
0 0.35164 0.5 0.01469 1
0 0.54696 0.5 0.01124 1
0 0.56036 0.5 0.01383 1
1 0.63814 0.5 0.0242 1
0 0.67919 0.5 0.00605 1
0 0.76605 0.5 0.00691 1
0 0.78592 0.5 0.0121 1
0 0.80753 0.5 0.0121 1
0 0.9497 0.5 0.01124 1
0 0.89093 0.5 0.01124 1
0 0.82611 0.5 0.01124 1
0 0.01372 0.5 0.00951 1
0 0.97822 0.5 0.01124 1
