0 0.11149 0.5 0.01178 1
0 0.17077 0.5 0.00663 1
0 0.17961 0.5 0.00957 1
0 0.26357 0.5 0.00957 1
0 0.27462 0.5 0.00957 1
0 0.43296 0.5 0.00663 1
0 0.45358 0.5 0.0081 1
0 0.49887 0.5 0.02209 1
0 0.74191 0.5 0.0162 1
0 0.76732 0.5 0.0081 1
0 0.81261 0.5 0.02209 1
0 0.91167 0.5 0.0081 1
0 0.92235 0.5 0.00884 1
1 0.95807 0.5 0.01252 1
0 0.38214 0.5 0.0081 1
