0 0.17868 0.5 0.00898 1
0 0.31989 0.5 0.00735 1
0 0.31336 0.5 0.01061 1
1 0.57415 0.5 0.02938 1
0 0.8431 0.5 0.01224 1
0 0.75209 0.5 0.01469 1
0 0.76393 0.5 0.01061 1
0 0.36478 0.5 0.00898 1
0 0.27622 0.5 0.00653 1
1 0.85902 0.5 0.01143 1
0 0.87575 0.5 0.01061 1
