0 0.08032 0.5 0.00816 1
0 0.12889 0.5 0.00571 1
0 0.09175 0.5 0.00816 1
0 0.05665 0.5 0.00816 1
0 0.04849 0.5 0.00816 1
1 0.04033 0.5 0.01143 1
0 0.55293 0.5 0.00653 1
0 0.59374 0.5 0.00653 1
0 0.58231 0.5 0.00979 1
0 0.44722 0.5 0.00735 1
0 0.33622 0.5 0.00735 1
0 0.15868 0.5 0.00816 1
1 0.17827 0.5 0.02612 1
0 0.21296 0.5 0.02857 1
