0 0.05425 0.5 0.00745 1
0 0.07026 0.5 0.00372 1
0 0.07733 0.5 0.00596 1
0 0.28698 0.5 0.0067 1
0 0.41061 0.5 0.00521 1
0 0.57408 0.5 0.00745 1
0 0.61578 0.5 0.00596 1
0 0.64036 0.5 0.00596 1
0 0.66196 0.5 0.00447 1
1 0.8824 0.5 0.01341 1
1 0.95353 0.5 0.0067 1
0 0.89655 0.5 0.00447 1
0 0.90921 0.5 0.01043 1
