0 0.00837 0.5 0.01744 1
0 0.54198 0.5 0.01395 1
0 0.31383 0.5 0.02151 1
0 0.72624 0.5 0.01744 1
0 0.64603 0.5 0.0186 1
1 0.58732 0.5 0.02558 1
1 0.23187 0.5 0.01686 1
0 0.24902 0.5 0.01511 1
1 0.28157 0.5 0.01511 1
