0 0.20847 0.5 0.01469 1
0 0.39743 0.5 0.01714 1
0 0.12767 0.5 0.01143 1
0 0.11624 0.5 0.01306 1
0 0.22235 0.5 0.00979 1
0 0.42845 0.5 0.01388 1
0 0.68394 0.5 0.00898 1
0 0.65904 0.5 0.00979 1
0 0.64108 0.5 0.01143 1
1 0.92473 0.5 0.01551 1
1 0.868 0.5 0.01632 1
1 0.80719 0.5 0.01877 1
1 0.52314 0.5 0.02694 1
