1 0.69006 0.5 0.01796 1
1 0.51008 0.5 0.01877 1
1 0.62313 0.5 0.01796 1
1 0.54558 0.5 0.01306 1
1 0.55946 0.5 0.01143 1
0 0.94595 0.5 0.01061 1
0 0.35866 0.5 0.01306 1
0 0.03788 0.5 0.00979 1
0 0.31663 0.5 0.01061 1
0 0.49293 0.5 0.01061 1
1 0.74597 0.5 0.01551 1
0 0.02482 0.5 0.00979 1
0 0.05951 0.5 0.01061 1
