0 0.23979 0.5 0.00723 1
0 0.17513 0.5 0.0095 1
0 0.0672 0.5 0.00774 1
0 0.25832 0.5 0.0054 1
0 0.27009 0.5 0.01121 1
0 0.13322 0.5 0.00442 1
0 0.322 0.5 0.00564 1
0 0.41079 0.5 0.00689 1
0 0.4759 0.5 0.00682 1
0 0.43605 0.5 0.00964 1
0 0.5965 0.5 0.00789 1
0 0.54047 0.5 0.00589 1
0 0.62996 0.5 0.00705 1
0 0.50854 0.5 0.0087 1
0 0.08929 0.5 0.00715 1
0 0.35376 0.5 0.009 1
1 0.70478 0.5 0.01401 1
0 0.72899 0.5 0.01204 1
0 0.91994 0.5 0.00654 1
0 0.92945 0.5 0.00788 1
0 0.93999 0.5 0.00558 1
