0 0.02744 0.5 0.00447 1
0 0.27469 0.5 0.00596 1
0 0.36853 0.5 0.00596 1
0 0.40688 0.5 0.00521 1
0 0.43332 0.5 0.00447 1
0 0.4188 0.5 0.00521 1
0 0.41247 0.5 0.00447 1
1 0.6344 0.5 0.01192 1
0 0.7275 0.5 0.00596 1
0 0.74053 0.5 0.0067 1
0 0.98406 0.5 0.00521 1
