0 0.34612 0.5 0.00963 1
1 0.48563 0.5 0.00896 1
1 0.4967 0.5 0.00963 1
1 0.8061 0.5 0.01823 1
1 0.8257 0.5 0.01653 1
1 0.85077 0.5 0.01697 1
1 0.8696 0.5 0.01664 1
1 0.9931 0.5 0.01155 1
0 0.93488 0.5 0.01777 1
0 0.74968 0.5 0.0122 1
0 0.6135 0.5 0.0078 1
0 0.62259 0.5 0.00718 1
0 0.67863 0.5 0.00551 1
0 0.10977 0.5 0.00649 1
0 0.1274 0.5 0.00983 1
0 0.36406 0.5 0.01102 1
0 0.45082 0.5 0.00576 1
0 0.56245 0.5 0.00866 1
