0 0.31867 0.5 0.01143 1
0 0.27745 0.5 0.00735 1
0 0.29091 0.5 0.00816 1
0 0.30112 0.5 0.00571 1
0 0.7125 0.5 0.01224 1
0 0.66883 0.5 0.00979 1
0 0.98023 0.5 0.01061 1
0 0.9688 0.5 0.01224 1
0 0.95697 0.5 0.01143 1
0 0.94187 0.5 0.00898 1
1 0.92799 0.5 0.01714 1
1 0.89616 0.5 0.01714 1
1 0.8631 0.5 0.02285 1
