0 0.19135 0.5 0.0065 1
0 0.20482 0.5 0.00558 1
0 0.19846 0.5 0.00465 1
0 0.71919 0.5 0.00558 1
0 0.76194 0.5 0.00558 1
1 0.89064 0.5 0.01208 1
1 0.92084 0.5 0.01301 1
0 0.93617 0.5 0.01022 1
0 0.94918 0.5 0.00836 1
