1 0.68333 0.5 0.01552 1
0 0.07784 0.5 0.01182 1
0 0.23854 0.5 0.01552 1
0 0.19384 0.5 0.0133 1
0 0.21305 0.5 0.01478 1
0 0.3719 0.5 0.01478 1
0 0.42473 0.5 0.01256 1
0 0.50674 0.5 0.01256 1
0 0.56585 0.5 0.01256 1
1 0.69995 0.5 0.01478 1
0 0.72027 0.5 0.01256 1
0 0.28583 0.5 0.01108 1
0 0.29986 0.5 0.00961 1
