0 0.43539 0.5 0.01143 1
0 0.61088 0.5 0.00816 1
0 0.45294 0.5 0.00898 1
0 0.16358 0.5 0.01143 1
0 0.01258 0.5 0.01143 1
0 0.32275 0.5 0.00816 1
0 0.3105 0.5 0.01143 1
0 0.35662 0.5 0.01061 1
0 0.70067 0.5 0.00979 1
0 0.71128 0.5 0.00979 1
1 0.28724 0.5 0.01388 1
