1 0.00506 0.5 0.00866 1
0 0.03711 0.5 0.00693 1
0 0.10468 0.5 0.0052 1
0 0.43602 0.5 0.00953 1
0 0.44598 0.5 0.01039 1
0 0.45724 0.5 0.00866 1
0 0.54213 0.5 0.00866 1
0 0.58657 0.5 0.00953 1
0 0.67189 0.5 0.00693 1
0 0.81554 0.5 0.00606 1
0 0.7471 0.5 0.00606 1
