1 0.34356 0.5 0.01877 1
1 0.13868 0.5 0.01714 1
1 0.02523 0.5 0.01388 1
0 0.63088 0.5 0.00571 1
0 0.80678 0.5 0.0098 1
0 0.94187 0.5 0.00735 1
0 0.01176 0.5 0.01306 1
0 0.15419 0.5 0.01877 1
0 0.46437 0.5 0.00408 1
0 0.52069 0.5 0.00898 1
0 0.36887 0.5 0.00898 1
