0 0.09562 0.5 0.00487 1
0 0.16027 0.5 0.00667 1
0 0.21122 0.5 0.00672 1
0 0.30047 0.5 0.00643 1
1 0.68489 0.5 0.01001 1
0 0.63243 0.5 0.00796 1
0 0.53898 0.5 0.01059 1
0 0.92169 0.5 0.00595 1
0 0.96021 0.5 0.0047 1
0 0.47557 0.5 0.00444 1
