1 0.6721 0.5 0.01796 1
0 0.82759 0.5 0.01224 1
0 0.8884 0.5 0.0098 1
0 0.94636 0.5 0.01632 1
0 0.26888 0.5 0.00816 1
0 0.37662 0.5 0.01632 1
0 0.75332 0.5 0.01714 1
0 0.30642 0.5 0.01143 1
0 0.28928 0.5 0.01469 1
