0 0.11959 0.5 0.00589 1
0 0.18624 0.5 0.00663 1
0 0.25694 0.5 0.00516 1
0 0.27204 0.5 0.00442 1
0 0.28971 0.5 0.00589 1
0 0.39392 0.5 0.00663 1
0 0.49998 0.5 0.00516 1
0 0.5055 0.5 0.00589 1
0 0.54711 0.5 0.00663 1
0 0.69993 0.5 0.00736 1
0 0.95991 0.5 0.00884 1
0 0.76695 0.5 0.00589 1
0 0.73491 0.5 0.00516 1
0 0.74633 0.5 0.00736 1
0 0.49482 0.5 0.00516 1
1 0.52907 0.5 0.00589 1
1 0.48341 0.5 0.00736 1
