0 0.11869 0.5 0.00816 1
0 0.44804 0.5 0.00735 1
0 0.84678 0.5 0.00653 1
0 0.75413 0.5 0.00735 1
1 0.66598 0.5 0.01388 1
1 0.32724 0.5 0.01388 1
0 0.55252 0.5 0.00571 1
0 0.51456 0.5 0.00653 1
0 0.60802 0.5 0.00735 1
0 0.36478 0.5 0.01061 1
