0 0.05094 0.5 0.0049 1
0 0.1244 0.5 0.0049 1
0 0.14848 0.5 0.00571 1
1 0.17215 0.5 0.01224 1
0 0.18399 0.5 0.00653 1
1 0.24357 0.5 0.01469 1
0 0.27051 0.5 0.00653 1
1 0.28398 0.5 0.01061 1
0 0.31295 0.5 0.00816 1
0 0.34438 0.5 0.00898 1
0 0.39294 0.5 0.00816 1
0 0.37948 0.5 0.00571 1
0 0.36968 0.5 0.00735 1
0 0.41784 0.5 0.00735 1
