0 0.07499 0.5 0.00674 1
0 0.09905 0.5 0.00866 1
0 0.1585 0.5 0.00866 1
0 0.24556 0.5 0.0078 1
0 0.29017 0.5 0.00866 1
1 0.3088 0.5 0.01299 1
1 0.63512 0.5 0.01819 1
1 0.6663 0.5 0.01126 1
0 0.65504 0.5 0.00953 1
1 0.68501 0.5 0.00693 1
0 0.75345 0.5 0.00866 1
1 0.82924 0.5 0.00943 1
0 0.80012 0.5 0.00764 1
0 0.78186 0.5 0.01019 1
