1 0.04271 0.5 0.01463 1
0 0.07625 0.5 0.00854 1
0 0.08905 0.5 0.00488 1
0 0.09758 0.5 0.00732 1
0 0.11465 0.5 0.01219 1
0 0.13051 0.5 0.00975 1
1 0.18233 0.5 0.01097 1
0 0.20367 0.5 0.00732 1
1 0.28475 0.5 0.01829 1
1 0.41583 0.5 0.00975 1
0 0.39998 0.5 0.01219 1
1 0.47984 0.5 0.01097 1
0 0.70603 0.5 0.00975 1
