0 0.60598 0.5 0.00653 1
0 0.51252 0.5 0.01224 1
0 0.46641 0.5 0.00979 1
0 0.44967 0.5 0.00735 1
0 0.43661 0.5 0.00735 1
0 0.33295 0.5 0.00735 1
0 0.39417 0.5 0.00571 1
0 0.38846 0.5 0.00571 1
0 0.33989 0.5 0.0049 1
0 0.37866 0.5 0.00571 1
0 0.25459 0.5 0.00898 1
1 0.23378 0.5 0.00979 1
1 0.78229 0.5 0.01143 1
1 0.95942 0.5 0.00979 1
0 0.93615 0.5 0.00898 1
0 0.90922 0.5 0.00735 1
0 0.86514 0.5 0.00571 1
0 0.12399 0.5 0.00571 1
0 0.08318 0.5 0.00571 1
0 0.00523 0.5 0.00653 1
0 0.01135 0.5 0.00571 1
0 0.15501 0.5 0.00571 1
0 0.22031 0.5 0.00735 1
0 0.1946 0.5 0.01469 1
0 0.11134 0.5 0.0049 1
0 0.98676 0.5 0.00571 1
