0 0.11885 0.5 0.00442 1
0 0.04557 0.5 0.00663 1
0 0.32727 0.5 0.00736 1
0 0.8093 0.5 0.00516 1
0 0.71613 0.5 0.00589 1
1 0.29781 0.5 0.01768 1
0 0.39135 0.5 0.00589 1
0 0.98531 0.5 0.00663 1
0 0.1763 0.5 0.00589 1
