0 0.06457 0.5 0.00442 1
0 0.10917 0.5 0.00353 1
0 0.19837 0.5 0.00707 1
0 0.16039 0.5 0.0053 1
0 0.34983 0.5 0.00971 1
0 0.38825 0.5 0.0053 1
0 0.39885 0.5 0.0106 1
0 0.70619 0.5 0.00883 1
1 0.85103 0.5 0.01236 1
0 0.83293 0.5 0.00971 1
