1 0.34275 0.5 0.00898 1
1 0.61333 0.5 0.00979 1
1 0.58966 0.5 0.01143 1
1 0.60721 0.5 0.00735 1
1 0.62313 0.5 0.00653 1
1 0.65414 0.5 0.01143 1
0 0.47702 0.5 0.0049 1
0 0.67863 0.5 0.0049 1
1 0.70148 0.5 0.0049 1
1 0.01747 0.5 0.0049 1
1 0.03706 0.5 0.00653 1
