1 0.18807 0.5 0.01796 1
1 0.21378 0.5 0.01551 1
1 0.26316 0.5 0.01632 1
1 0.30193 0.5 0.01714 1
1 0.69536 0.5 0.01224 1
1 0.57048 0.5 0.01388 1
0 0.46396 0.5 0.01143 1
1 0.90432 0.5 0.01877 1
