1 0.41539 0.5 0.01714 1
1 0.5464 0.5 0.01469 1
0 0.60639 0.5 0.00898 1
0 0.72352 0.5 0.00653 1
0 0.88391 0.5 0.01551 1
1 0.49171 0.5 0.01143 1
0 0.48273 0.5 0.01143 1
0 0.6521 0.5 0.00898 1
0 0.98962 0.5 0.00979 1
0 0.76474 0.5 0.01388 1
