0 0.15494 0.5 0.00736 1
0 0.1623 0.5 0.00736 1
0 0.17114 0.5 0.00884 1
0 0.1925 0.5 0.01178 1
0 0.38472 0.5 0.01031 1
1 0.62849 0.5 0.0162 1
1 0.68189 0.5 0.0081 1
0 0.72976 0.5 0.01105 1
0 0.75517 0.5 0.00884 1
1 0.76916 0.5 0.01326 1
1 0.78278 0.5 0.01105 1
1 0.84833 0.5 0.01547 1
