0 0.56068 0.5 0.01061 1
0 0.23949 0.5 0.00979 1
1 0.8729 0.5 0.02122 1
0 0.90881 0.5 0.01306 1
0 0.98513 0.5 0.01224 1
0 0.96554 0.5 0.01388 1
0 0.69944 0.5 0.01388 1
1 0.62272 0.5 0.01388 1
0 0.76719 0.5 0.01714 1
0 0.83004 0.5 0.01224 1
1 0.2199 0.5 0.01632 1
