0 0.17598 0.5 0.00854 1
0 0.24827 0.5 0.00591 1
0 0.96196 0.5 0.00789 1
0 0.93798 0.5 0.00591 1
0 0.93239 0.5 0.00657 1
1 0.90381 0.5 0.01117 1
1 0.79473 0.5 0.01249 1
1 0.76745 0.5 0.0092 1
1 0.71916 0.5 0.00854 1
