0 0.78841 0.5 0.01061 1
0 0.4558 0.5 0.01469 1
0 0.19827 0.5 0.01224 1
0 0.09053 0.5 0.01224 1
0 0.30438 0.5 0.01388 1
1 0.86065 0.5 0.01469 1
1 0.21949 0.5 0.01061 1
1 0.23623 0.5 0.01469 1
0 0.07665 0.5 0.01388 1
0 0.7023 0.5 0.01469 1
1 0.65537 0.5 0.01388 1
