1 0.94268 0.5 0.01224 1
1 0.95493 0.5 0.01224 1
1 0.92718 0.5 0.02204 1
0 0.66639 0.5 0.00653 1
0 0.45171 0.5 0.00979 1
0 0.37213 0.5 0.00735 1
0 0.34397 0.5 0.00816 1
0 0.51416 0.5 0.00735 1
