0 0.05461 0.5 0.00735 1
0 0.06481 0.5 0.00979 1
0 0.13093 0.5 0.00653 1
1 0.15093 0.5 0.01061 1
0 0.16562 0.5 0.00735 1
0 0.43416 0.5 0.00571 1
0 0.60394 0.5 0.00735 1
0 0.82229 0.5 0.00816 1
0 0.8729 0.5 0.00979 1
0 0.85535 0.5 0.01061 1
