1 0.33406 0.5 0.00982 1
0 0.55934 0.5 0.00358 1
0 0.52281 0.5 0.00645 1
1 0.41482 0.5 0.01789 1
0 0.42893 0.5 0.00482 1
0 0.97241 0.5 0.00688 1
1 0.9251 0.5 0.02108 1
0 0.80451 0.5 0.00484 1
0 0.17658 0.5 0.00781 1
0 0.45806 0.5 0.00654 1
