0 0.04003 0.5 0.00721 1
0 0.10853 0.5 0.01082 1
0 0.08825 0.5 0.00631 1
0 0.23157 0.5 0.00811 1
0 0.42673 0.5 0.00721 1
0 0.48442 0.5 0.00901 1
0 0.51011 0.5 0.00992 1
0 0.93376 0.5 0.00631 1
0 0.95224 0.5 0.00721 1
0 0.96666 0.5 0.00721 1
0 0.32667 0.5 0.00541 1
0 0.26943 0.5 0.00811 1
0 0.81748 0.5 0.00631 1
0 0.29783 0.5 0.00541 1
0 0.97748 0.5 0.00541 1
0 0.98649 0.5 0.00541 1
0 0.54571 0.5 0.00721 1
0 0.56103 0.5 0.00901 1
1 0.93511 0.5 0.00541 1
1 0.95044 0.5 0.00541 1
1 0.96666 0.5 0.00541 1
1 0.97703 0.5 0.00631 1
1 0.9883 0.5 0.00541 1
1 0.50875 0.5 0.01262 1
1 0.48487 0.5 0.01352 1
1 0.32892 0.5 0.01172 1
1 0.26853 0.5 0.00992 1
1 0.22662 0.5 0.00901 1
1 0.10808 0.5 0.01352 1
1 0.0887 0.5 0.00901 1
