0 0.84883 0.5 0.01108 1
0 0.73061 0.5 0.00517 1
0 0.67335 0.5 0.00591 1
0 0.62089 0.5 0.00591 1
1 0.39591 0.5 0.01256 1
0 0.2777 0.5 0.00813 1
0 0.22783 0.5 0.01034 1
0 0.94118 0.5 0.00665 1
0 0.50416 0.5 0.00591 1
0 0.14692 0.5 0.00665 1
0 0.01467 0.5 0.00813 1
