0 0.34332 0.5 0.00989 1
0 0.41883 0.5 0.00629 1
0 0.40805 0.5 0.00809 1
0 0.39456 0.5 0.00809 1
1 0.53885 0.5 0.01978 1
0 0.57121 0.5 0.00719 1
0 0.63054 0.5 0.00899 1
0 0.59278 0.5 0.00719 1
