0 0.40805 0.5 0.01061 1
0 0.8329 0.5 0.00979 1
1 0.87861 0.5 0.00979 1
1 0.91248 0.5 0.01224 1
1 0.9435 0.5 0.01551 1
1 0.96105 0.5 0.01796 1
1 0.9835 0.5 0.01714 1
0 0.42355 0.5 0.00735 1
0 0.3758 0.5 0.00653 1
0 0.66271 0.5 0.00571 1
0 0.90106 0.5 0.01061 1
