0 0.504926 0.5 0.0133709 1 
0 0.740676 0.5 0.0133709 1 
0 0.344124 0.5 0.0154821 1 
0 0.0823364 0.5 0.0140746 1 
0 0.434553 0.5 0.0133709 1 
0 0.312104 0.5 0.0133709 1 
0 0.572132 0.5 0.0140746 1 
0 0.566502 0.5 0.0140746 1 
0 0.539409 0.5 0.0133709 1 
