1 0.519353 0.5 0.0225194 1 
1 0.152709 0.5 0.018297 1 
0 0.394441 0.5 0.0133709 1 
0 0.885292 0.5 0.0140746 1 
0 0.539409 0.5 0.0133709 1 
0 0.568262 0.5 0.0133709 1 
0 0.353624 0.5 0.0133709 1 
0 0.594652 0.5 0.0126671 1 
0 0.0330753 0.496914 0.0140746 0.993827 
0 0.186137 0.5 0.0133709 1 
0 0.515482 0.5 0.0175932 1 
0 0.930331 0.5 0.0126671 1 
0 0.904293 0.5 0.0126671 1 
0 0.667488 0.5 0.0133709 1 
0 0.861013 0.5 0.0133709 1 
