0 0.672414 0.5 0.0133709 1 
0 0.964814 0.5 0.0126671 1 
0 0.505278 0.5 0.0126671 1 
0 0.491555 0.5 0.0133709 1 
0 0.700211 0.5 0.0126671 1 
0 0.384588 0.5 0.0133709 1 
0 0.276214 0.5 0.0133709 1 
0 0.0193526 0.5 0.0133709 1 
0 0.828994 0.5 0.0140746 1 
0 0.689303 0.5 0.0133709 1 
0 0.853976 0.5 0.0133709 1 
0 0.83392 0.5 0.0168895 1 
