0 0.52928 0.5 0.01034 1
0 0.60686 0.5 0.00739 1
0 0.70697 0.5 0.00813 1
0 0.76423 0.5 0.00887 1
0 0.77494 0.5 0.00961 1
0 0.8806 0.5 0.00961 1
0 0.17352 0.5 0.00665 1
0 0.30393 0.5 0.00887 1
0 0.01245 0.5 0.00813 1
0 0.02206 0.5 0.00813 1
0 0.03351 0.5 0.00887 1
