0 0.06148 0.5 0.00707 1
0 0.19837 0.5 0.00883 1
0 0.23458 0.5 0.00707 1
0 0.2518 0.5 0.00795 1
0 0.27432 0.5 0.0159 1
0 0.32025 0.5 0.00883 1
1 0.37191 0.5 0.02385 1
1 0.4068 0.5 0.02296 1
1 0.46111 0.5 0.02031 1
0 0.51587 0.5 0.01325 1
0 0.65232 0.5 0.0106 1
0 0.68279 0.5 0.00618 1
1 0.70045 0.5 0.01678 1
0 0.94333 0.5 0.00971 1
0 0.89563 0.5 0.01325 1
0 0.82763 0.5 0.01148 1
0 0.71723 0.5 0.01148 1
