0 0.05046 0.5 0.00892 1
0 0.15299 0.5 0.00991 1
0 0.07473 0.5 0.00594 1
0 0.35605 0.5 0.01189 1
0 0.18568 0.5 0.00792 1
0 0.42242 0.5 0.00792 1
1 0.53732 0.5 0.01981 1
0 0.48037 0.5 0.0109 1
0 0.55862 0.5 0.00891 1
1 0.44074 0.5 0.01882 1
0 0.96559 0.5 0.00693 1
0 0.92101 0.5 0.00891 1
0 0.82097 0.5 0.00892 1
1 0.78481 0.5 0.01783 1
1 0.72786 0.5 0.01486 1
1 0.66099 0.5 0.01783 1
0 0.75658 0.5 0.01288 1
0 0.7442 0.5 0.01387 1
0 0.64514 0.5 0.00991 1
0 0.6184 0.5 0.00991 1
0 0.84524 0.5 0.00991 1
