0 0.06031 0.5 0.00631 1
0 0.07563 0.5 0.00811 1
0 0.10628 0.5 0.01172 1
0 0.14774 0.5 0.01713 1
0 0.17749 0.5 0.01352 1
0 0.68858 0.5 0.00992 1
0 0.7625 0.5 0.00811 1
0 0.78458 0.5 0.00721 1
1 0.06121 0.5 0.00631 1
1 0.10267 0.5 0.01172 1
1 0.14639 0.5 0.01803 1
1 0.17884 0.5 0.00901 1
