1 0.61045 0.5 0.00782 1
0 0.62756 0.5 0.00684 1
0 0.60165 0.5 0.00782 1
0 0.77716 0.5 0.00684 1
0 0.82214 0.5 0.00684 1
0 0.78987 0.5 0.0088 1
0 0.88423 0.5 0.00587 1
0 0.65738 0.5 0.00978 1
0 0.64761 0.5 0.00587 1
0 0.9729 0.5 0.00587 1
1 0.98195 0.5 0.00615 1
1 0.89706 0.5 0.00845 1
1 0.68757 0.5 0.00829 1
0 0.52352 0.5 0.00497 1
0 0.39262 0.5 0.00994 1
0 0.37358 0.5 0.00829 1
