0 0.98186 0.5 0.01388 1
0 0.90759 0.5 0.00898 1
0 0.80147 0.5 0.02204 1
0 0.73985 0.5 0.0049 1
0 0.76148 0.5 0.00898 1
0 0.77046 0.5 0.00898 1
0 0.61537 0.5 0.01388 1
0 0.55497 0.5 0.00735 1
1 0.57619 0.5 0.00898 1
0 0.59537 0.5 0.00979 1
0 0.58517 0.5 0.00735 1
0 0.44886 0.5 0.00898 1
0 0.35948 0.5 0.01469 1
0 0.31499 0.5 0.00898 1
0 0.28398 0.5 0.02204 1
0 0.03706 0.5 0.01632 1
0 0.06277 0.5 0.01388 1
0 0.67088 0.5 0.01388 1
0 0.71128 0.5 0.00979 1
