1 0.16862 0.5 0.01282 1
0 0.28682 0.5 0.00721 1
0 0.39701 0.5 0.00641 1
1 0.40502 0.5 0.00962 1
1 0.59615 0.5 0.01202 1
0 0.60978 0.5 0.00882 1
0 0.66427 0.5 0.00882 1
0 0.78007 0.5 0.00801 1
0 0.84659 0.5 0.00801 1
0 0.83456 0.5 0.00962 1
0 0.88986 0.5 0.00962 1
