0 0.95044 0.5 0.00653 1
1 0.89519 0.5 0.00898 1
0 0.59619 0.5 0.00653 1
0 0.23051 0.5 0.01143 1
0 0.72271 0.5 0.00816 1
1 0.70842 0.5 0.00735 1
0 0.87616 0.5 0.00816 1
1 0.8831 0.5 0.00735 1
0 0.31703 0.5 0.00816 1
1 0.76597 0.5 0.01143 1
0 0.52967 0.5 0.01061 1
0 0.08767 0.5 0.00653 1
0 0.13134 0.5 0.00571 1
0 0.15134 0.5 0.01306 1
0 0.83943 0.5 0.00653 1
