1 0.37376 0.5 0.02317 1
0 0.70908 0.5 0.00854 1
0 0.78894 0.5 0.00975 1
0 0.75602 0.5 0.00732 1
0 0.77248 0.5 0.00854 1
0 0.84686 0.5 0.01097 1
0 0.92734 0.5 0.01097 1
0 0.96453 0.5 0.00975 1
