0 0.02155 0.5 0.01143 1
0 0.43825 0.5 0.01061 1
1 0.34397 0.5 0.01469 1
1 0.36642 0.5 0.01877 1
0 0.59374 0.5 0.00816 1
0 0.65904 0.5 0.00979 1
0 0.69128 0.5 0.02694 1
0 0.11746 0.5 0.00898 1
0 0.12726 0.5 0.00898 1
