0 0.06644 0.5 0.01042 1
1 0.11733 0.5 0.02084 1
0 0.16581 0.5 0.00882 1
0 0.28962 0.5 0.00962 1
0 0.5072 0.5 0.00721 1
0 0.75483 0.5 0.00561 1
0 0.90268 0.5 0.00801 1
1 0.9127 0.5 0.00882 1
0 0.92272 0.5 0.00641 1
0 0.93714 0.5 0.00801 1
0 0.95437 0.5 0.00561 1
0 0.99364 0.5 0.00561 1
