0 0.10302 0.5 0.0081 1
0 0.15199 0.5 0.00442 1
0 0.18697 0.5 0.00516 1
0 0.25215 0.5 0.00442 1
0 0.28419 0.5 0.00663 1
0 0.40644 0.5 0.00368 1
1 0.41749 0.5 0.00957 1
0 0.50771 0.5 0.00736 1
0 0.59646 0.5 0.0081 1
0 0.72828 0.5 0.00663 1
0 0.79935 0.5 0.01031 1
0 0.91314 0.5 0.00957 1
0 0.92603 0.5 0.01031 1
0 0.94702 0.5 0.00663 1
0 0.95181 0.5 0.00442 1
0 0.65942 0.5 0.00589 1
0 0.71135 0.5 0.00663 1
0 0.68778 0.5 0.00663 1
1 0.64617 0.5 0.00736 1
