1 0.79457 0.5 0.01841 1
0 0.16046 0.5 0.00957 1
0 0.23595 0.5 0.00884 1
0 0.28051 0.5 0.00663 1
0 0.66826 0.5 0.01031 1
0 0.95807 0.5 0.00957 1
0 0.98458 0.5 0.01105 1
0 0.08939 0.5 0.00884 1
