0 0.85823 0.5 0.00821 1
0 0.99055 0.5 0.00821 1
0 0.80165 0.5 0.00639 1
0 0.78979 0.5 0.00639 1
1 0.76971 0.5 0.01916 1
0 0.7437 0.5 0.0073 1
0 0.72728 0.5 0.01278 1
0 0.62507 0.5 0.01095 1
0 0.55344 0.5 0.00821 1
0 0.28652 0.5 0.01095 1
0 0.13869 0.5 0.01278 1
0 0.01094 0.5 0.0073 1
