1 0.11434 0.5 0.01744 1
0 0.04815 0.5 0.00671 1
0 0.042 0.5 0.00758 1
0 0.15155 0.5 0.01544 1
0 0.21653 0.5 0.01141 1
0 0.27955 0.5 0.01073 1
0 0.40862 0.5 0.0071 1
0 0.51309 0.5 0.00621 1
0 0.49965 0.5 0.0096 1
1 0.55955 0.5 0.01631 1
0 0.58542 0.5 0.00705 1
0 0.59337 0.5 0.00714 1
0 0.60122 0.5 0.00753 1
0 0.65012 0.5 0.00566 1
0 0.7386 0.5 0.00691 1
0 0.74592 0.5 0.00909 1
0 0.80494 0.5 0.01207 1
1 0.75909 0.5 0.0173 1
0 0.81397 0.5 0.00659 1
