0 0.40396 0.5 0.01224 1
0 0.63088 0.5 0.00735 1
0 0.69781 0.5 0.01061 1
0 0.31499 0.5 0.00571 1
0 0.32316 0.5 0.00571 1
0 0.97044 0.5 0.00735 1
0 0.88963 0.5 0.00571 1
1 0.27622 0.5 0.01143 1
0 0.59864 0.5 0.00816 1
