1 0.92723 0.5 0.01469 1
0 0.86025 0.5 0.0121 1
0 0.8166 0.5 0.00605 1
0 0.80148 0.5 0.00864 1
0 0.55387 0.5 0.00778 1
0 0.99032 0.5 0.00605 1
0 0.87883 0.5 0.01124 1
0 0.74487 0.5 0.00951 1
0 0.22935 0.5 0.00519 1
