0 0.63291 0.5 0.00884 1
0 0.56516 0.5 0.01031 1
0 0.54748 0.5 0.00884 1
0 0.52686 0.5 0.01326 1
0 0.4186 0.5 0.01326 1
1 0.3954 0.5 0.02136 1
0 0.31033 0.5 0.01031 1
0 0.12474 0.5 0.01031 1
0 0.11664 0.5 0.00884 1
