1 0.56885 0.5 0.02367 1
1 0.75985 0.5 0.01877 1
1 0.52722 0.5 0.01388 1
1 0.53497 0.5 0.01469 1
1 0.04033 0.5 0.01306 1
0 0.84269 0.5 0.01306 1
0 0.91208 0.5 0.00816 1
1 0.44722 0.5 0.02041 1
