1 0.51456 0.5 0.01306 1
0 0.96146 0.5 0.01551 1
0 0.86351 0.5 0.01061 1
0 0.60802 0.5 0.01061 1
0 0.36438 0.5 0.00979 1
0 0.35254 0.5 0.00898 1
0 0.03176 0.5 0.00735 1
0 0.08155 0.5 0.00735 1
