0 0.96962 0.5 0.00898 1
0 0.80556 0.5 0.00898 1
0 0.4509 0.5 0.00816 1
0 0.28153 0.5 0.01224 1
0 0.1644 0.5 0.01469 1
0 0.32479 0.5 0.00898 1
0 0.31254 0.5 0.01224 1
0 0.14032 0.5 0.01061 1
0 0.65129 0.5 0.01061 1
1 0.35907 0.5 0.01388 1
