0 0.11572 0.5 0.00641 1
0 0.13416 0.5 0.00641 1
0 0.14377 0.5 0.01122 1
0 0.1578 0.5 0.01042 1
0 0.31286 0.5 0.00962 1
0 0.34973 0.5 0.00641 1
1 0.54166 0.5 0.01843 1
0 0.59535 0.5 0.01202 1
0 0.70434 0.5 0.00721 1
0 0.91991 0.5 0.01042 1
