1 0.24398 0.5 0.0253 1
0 0.75332 0.5 0.00735 1
0 0.81657 0.5 0.00979 1
0 0.64108 0.5 0.00653 1
0 0.31663 0.5 0.00735 1
0 0.13583 0.5 0.00653 1
0 0.10726 0.5 0.0049 1
0 0.11379 0.5 0.0049 1
0 0.27377 0.5 0.00653 1
