1 0.05502 0.5 0.01959 1
0 0.4211 0.5 0.01061 1
0 0.16766 0.5 0.00816 1
0 0.17991 0.5 0.00653 1
0 0.68679 0.5 0.00653 1
0 0.29826 0.5 0.01306 1
0 0.19501 0.5 0.01224 1
1 0.09665 0.5 0.01143 1
0 0.08073 0.5 0.01714 1
