0 0.05339 0.5 0.01469 1
0 0.32152 0.5 0.01224 1
0 0.30561 0.5 0.01469 1
0 0.4109 0.5 0.01306 1
0 0.39499 0.5 0.01224 1
0 0.37825 0.5 0.01143 1
0 0.51946 0.5 0.01143 1
0 0.56925 0.5 0.01796 1
0 0.92962 0.5 0.01224 1
0 0.98676 0.5 0.01877 1
0 0.67414 0.5 0.01224 1
0 0.18072 0.5 0.00816 1
0 0.01706 0.5 0.01061 1
0 0.53048 0.5 0.00735 1
0 0.46151 0.5 0.00816 1
1 0.15542 0.5 0.01306 1
