1 0.15419 0.5 0.01061 1
0 0.18633 0.5 0.00895 1
0 0.1964 0.5 0.00671 1
0 0.25609 0.5 0.0097 1
0 0.52729 0.5 0.01045 1
0 0.48327 0.5 0.01194 1
0 0.67576 0.5 0.01045 1
1 0.7538 0.5 0.01536 1
0 0.70225 0.5 0.00585 1
0 0.78853 0.5 0.00877 1
0 0.85215 0.5 0.01024 1
0 0.8251 0.5 0.00731 1
0 0.83716 0.5 0.00658 1
1 0.6504 0.5 0.01344 1
0 0.34486 0.5 0.01124 1
0 0.60499 0.5 0.00731 1
0 0.73844 0.5 0.00951 1
1 0.79841 0.5 0.01243 1
