0 0.72516 0.5 0.01469 1
0 0.70271 0.5 0.01388 1
0 0.01298 0.5 0.00898 1
0 0.07828 0.5 0.01061 1
0 0.15501 0.5 0.00898 1
0 0.1342 0.5 0.01143 1
0 0.27459 0.5 0.01143 1
0 0.35662 0.5 0.01061 1
1 0.80188 0.5 0.01632 1
0 0.03747 0.5 0.01551 1
0 0.05584 0.5 0.00979 1
0 0.06645 0.5 0.00816 1
0 0.23133 0.5 0.00816 1
