0 0.20521 0.5 0.00979 1
0 0.255 0.5 0.01143 1
1 0.55211 0.5 0.01959 1
1 0.59864 0.5 0.00979 1
1 0.62517 0.5 0.01224 1
1 0.65986 0.5 0.01796 1
1 0.69495 0.5 0.01632 1
1 0.7627 0.5 0.01796 1
1 0.80433 0.5 0.01469 1
0 0.8631 0.5 0.01632 1
0 0.99452 0.5 0.01143 1
