0 0.03135 0.5 0.00653 1
0 0.11093 0.5 0.00735 1
0 0.89983 0.5 0.0049 1
0 0.6268 0.5 0.00408 1
0 0.60598 0.5 0.0049 1
0 0.47865 0.5 0.00816 1
0 0.70842 0.5 0.00571 1
0 0.3905 0.5 0.00816 1
0 0.3003 0.5 0.00735 1
1 0.32928 0.5 0.00816 1
1 0.95983 0.5 0.00571 1
