0 0.44204 0.5 0.01013 1
0 0.48948 0.5 0.0129 1
0 0.50928 0.5 0.01197 1
0 0.69765 0.5 0.01474 1
0 0.77824 0.5 0.01197 1
0 0.81186 0.5 0.0129 1
0 0.55073 0.5 0.01382 1
0 0.47797 0.5 0.01382 1
1 0.10216 0.5 0.0175 1
0 0.25091 0.5 0.01474 1
0 0.19427 0.5 0.00829 1
0 0.00544 0.5 0.00829 1
0 0.1565 0.5 0.01382 1
0 0.52632 0.5 0.01474 1
