1 0.33009 0.5 0.01469 1
1 0.18929 0.5 0.01388 1
1 0.45865 0.5 0.01061 1
1 0.36478 0.5 0.00898 1
1 0.62231 0.5 0.01143 1
0 0.52967 0.5 0.00898 1
0 0.50314 0.5 0.01143 1
1 0.21623 0.5 0.01224 1
0 0.01747 0.5 0.00979 1
0 0.03951 0.5 0.01143 1
1 0.65455 0.5 0.01551 1
