0 0.83921 0.5 0.00745 1
0 0.82915 0.5 0.00819 1
0 0.51115 0.5 0.0067 1
0 0.21176 0.5 0.0067 1
0 0.07398 0.5 0.00819 1
0 0.04159 0.5 0.00596 1
0 0.09335 0.5 0.0067 1
1 0.319 0.5 0.01713 1
0 0.36741 0.5 0.01266 1
