1 0.72544 0.5 0.01847 1
0 0.51228 0.5 0.01182 1
0 0.40515 0.5 0.01034 1
0 0.44948 0.5 0.01034 1
0 0.26477 0.5 0.00887 1
0 0.24704 0.5 0.01182 1
0 0.16761 0.5 0.00813 1
0 0.75093 0.5 0.00739 1
0 0.95559 0.5 0.00591 1
0 0.55292 0.5 0.00739 1
0 0.30836 0.5 0.00591 1
0 0.33311 0.5 0.00517 1
