1 0.79331 0.5 0.01224 1
1 0.94268 0.5 0.01388 1
1 0.43172 0.5 0.01061 1
0 0.4411 0.5 0.0049 1
1 0.49865 0.5 0.01061 1
0 0.6468 0.5 0.0049 1
0 0.37417 0.5 0.00653 1
0 0.044 0.5 0.00571 1
0 0.02604 0.5 0.00735 1
0 0.12726 0.5 0.00408 1
1 0.20358 0.5 0.00979 1
0 0.23459 0.5 0.0049 1
0 0.60476 0.5 0.00571 1
0 0.61047 0.5 0.00408 1
1 0.63374 0.5 0.00979 1
0 0.71699 0.5 0.00653 1
0 0.868 0.5 0.00816 1
0 0.88065 0.5 0.00571 1
0 0.95207 0.5 0.00816 1
0 0.96023 0.5 0.00816 1
0 0.98105 0.5 0.00898 1
0 0.81004 0.5 0.00653 1
0 0.89085 0.5 0.0049 1
0 0.93248 0.5 0.0049 1
