0 0.26033 0.5 0.01611 1
0 0.42734 0.5 0.02104 1
0 0.57055 0.5 0.02018 1
0 0.84079 0.5 0.02032 1
0 0.02957 0.5 0.03002 1
0 0.17498 0.5 0.01847 1
0 0.45916 0.5 0.02616 1
0 0.8625 0.5 0.01386 1
0 0.08499 0.5 0.01801 1
1 0.06339 0.5 0.02058 1
