1 0.81168 0.5 0.02938 1
1 0.89453 0.5 0.02857 1
0 0.93371 0.5 0.00735 1
0 0.92269 0.5 0.01959 1
0 0.15583 0.5 0.01714 1
1 0.37295 0.5 0.04653 1
0 0.73536 0.5 0.01714 1
0 0.53334 0.5 0.02449 1
0 0.47906 0.5 0.02204 1
0 0.51008 0.5 0.01551 1
0 0.64108 0.5 0.01469 1
0 0.57823 0.5 0.01796 1
