1 0.07193 0.5 0.02217 1
0 0.1702 0.5 0.01182 1
0 0.23706 0.5 0.01256 1
0 0.28546 0.5 0.01478 1
0 0.31649 0.5 0.01478 1
0 0.30245 0.5 0.01182 1
0 0.56179 0.5 0.0133 1
1 0.51782 0.5 0.01847 1
0 0.57989 0.5 0.01404 1
0 0.62865 0.5 0.00665 1
0 0.65119 0.5 0.01182 1
0 0.90609 0.5 0.01182 1
1 0.76977 0.5 0.01847 1
0 0.35602 0.5 0.01256 1
0 0.33607 0.5 0.00813 1
1 0.70919 0.5 0.01699 1
0 0.39111 0.5 0.0133 1
