0 0.81127 0.5 0.01388 1
1 0.72148 0.5 0.02204 1
0 0.61537 0.5 0.00898 1
1 0.75291 0.5 0.01632 1
0 0.7876 0.5 0.01061 1
1 0.77046 0.5 0.01551 1
1 0.54436 0.5 0.01224 1
1 0.51579 0.5 0.00898 1
1 0.53171 0.5 0.01306 1
