0 0.00918 0.5 0.00854 1
0 0.24573 0.5 0.0061 1
0 0.389 0.5 0.00732 1
0 0.43168 0.5 0.01463 1
0 0.51886 0.5 0.00854 1
1 0.55727 0.5 0.01707 1
0 0.61214 0.5 0.00975 1
1 0.91636 0.5 0.01585 1
1 0.9883 0.5 0.01341 1
0 0.74688 0.5 0.01341 1
