0 0.23051 0.5 0.01632 1
1 0.92269 0.5 0.03591 1
1 0.8329 0.5 0.04897 1
1 0.75576 0.5 0.0253 1
1 0.41866 0.5 0.03183 1
1 0.31622 0.5 0.04734 1
1 0.26153 0.5 0.02285 1
1 0.18235 0.5 0.03918 1
1 0.97003 0.5 0.03428 1
0 0.53089 0.5 0.02938 1
